^C:\USERS\AMCV\SOURCE\REPOS\HELLO WORLD\HELLO WORLD\RELEASE\HELLO WORLD.OBJ
C:\USERS\AMCV\SOURCE\REPOS\HELLO WORLD\RELEASE\HELLO WORLD.EXE
C:\USERS\AMCV\SOURCE\REPOS\HELLO WORLD\RELEASE\HELLO WORLD.PDB
